Data exploration
================

# Loading data

``` r
load("../data/ilposdata.RData")
# load("../data/ilposdata.Rdata")

load("../data/paavodata.RData")

rename(ilposdata, sex= gender )
```

    ## # A tibble: 1,537,680 x 13
    ##    donor Site  dateonly   status donat_phleb    Hb sex   aborh zip     age
    ##    <fct> <fct> <date>     <fct>  <fct>       <dbl> <fct> <fct> <fct> <int>
    ##  1 DR00… L3149 2018-10-08 -      K             141 Women A Rh… 90570    19
    ##  2 DR00… L3149 2018-10-08 -      K             156 Men   O Rh… 90530    21
    ##  3 DR00… L3149 2018-10-08 -      K             156 Men   A Rh… 90560    22
    ##  4 DR00… L0564 2019-01-17 -      K             163 Men   A Rh… 90560    22
    ##  5 DR00… L3149 2018-10-08 R      K             127 Women A Rh… 90570    20
    ##  6 DR00… L3149 2019-01-14 E      *             138 Women A Rh… 90570    20
    ##  7 DR00… L3149 2018-10-08 E      *             144 Women ""    90550    19
    ##  8 DR00… L3149 2018-10-08 -      K             140 Women O Rh… 90530    21
    ##  9 DR00… L3149 2018-10-08 -      K             128 Women B Rh… 90500    19
    ## 10 DR00… L3149 2018-10-08 -      K             153 Women AB R… 90530    20
    ## # … with 1,537,670 more rows, and 3 more variables: age.group <fct>,
    ## #   Hb_deferral <fct>, FirstEvent <lgl>
…
  
 Sitedata %>% 
mutate(Year = year(dateonly)) %>% 
filter(donat_phleb == "K") %>% 
filter(Year > 2015) %>% 
count(locSim, Year) 
```

    ## # A tibble: 40 x 3
    ##    locSim     Year     n
    ##    <chr>     <dbl> <int>
    ##  1 Espoo      2016  7152
    ##  2 Espoo      2017  7721
    ##  3 Espoo      2018  8892
    ##  4 Espoo      2019  3597
    ##  5 Jyväskylä  2016  8711
    ##  6 Jyväskylä  2017  8642
    ##  7 Jyväskylä  2018  8461
    ##  8 Jyväskylä  2019  3372
    ##  9 Kivihaka   2016 10139
    ## 10 Kivihaka   2017 10354
    ## # … with 30 more rows
…
