…
"651001"= "61100",
"669001"="66900",
"685001" = "68500",
"686001"= "68600",
"686201"= "68620",
"651001"= "06500",
"651001" = "65100",
"652001" = "65200",
"669001"= "66900",
"686001" = "68600",
"688001" = "68600",
"688001" = "68600"))
```

    ## # A tibble: 1,537,680 x 13
    ##    donor Site  dateonly   status donat_phleb    Hb gender aborh zip     age
    ##    <fct> <fct> <date>     <fct>  <fct>       <dbl> <fct>  <fct> <fct> <int>
    ##  1 DR00… L3149 2018-10-08 -      K             141 Women  A Rh… 90570    19
    ##  2 DR00… L3149 2018-10-08 -      K             156 Men    O Rh… 90530    21
    ##  3 DR00… L3149 2018-10-08 -      K             156 Men    A Rh… 90560    22
    ##  4 DR00… L0564 2019-01-17 -      K             163 Men    A Rh… 90560    22
    ##  5 DR00… L3149 2018-10-08 R      K             127 Women  A Rh… 90570    20
    ##  6 DR00… L3149 2019-01-14 E      *             138 Women  A Rh… 90570    20
    ##  7 DR00… L3149 2018-10-08 E      *             144 Women  ""    90550    19
    ##  8 DR00… L3149 2018-10-08 -      K             140 Women  O Rh… 90530    21
    ##  9 DR00… L3149 2018-10-08 -      K             128 Women  B Rh… 90500    19
    ## 10 DR00… L3149 2018-10-08 -      K             153 Women  AB R… 90530    20
    ## # … with 1,537,670 more rows, and 3 more variables: age.group <fct>,
    ## #   Hb_deferral <fct>, FirstEvent <lgl>
…
